{
    "empty_string": {
        "input": [
            ""
        ],
        "expected": [
            false
        ]
    },
    "null_value": {
        "input": [
            null
        ],
        "expected": [
            false
        ]
    },
    "one_palindrome": {
        "input": [
            "level"
        ],
        "expected": [
            true
        ]
    },
    "no_palindrome": {
        "input": [
            "foobar"
        ],
        "expected": [
            false
        ]
    },
    "all_palindrome": {
        "input": [
            "level",
            "ABBA",
            "racecar"
        ],
        "expected": [
            true,
            true,
            true
        ]
    },
    "all_not_palindrome": {
        "input": [
            "foobar",
            "something",
            "wicked"
        ],
        "expected": [
            false,
            false,
            false
        ]
    },
    "mixed_results": {
        "input": [
            "level",
            "foobar"
        ],
        "expected": [
            true,
            false
        ]
    },
    "case_sensitive": {
        "input": [
            "level",
            "Level",
            "LeVeL"
        ],
        "expected": [
            true,
            false,
            true
        ]
    }
}